{
    "containerDefinitions": [
        {
            "name": "Snowflake-Container",
            "image": "nicncs/snowflake",
            "cpu": 0,
            "command": [],
            "memory": 512,
            "essential": true,
            "portMappings": [
                {
                    "containerPort": 3000,
                    "hostPort": 3000
                }
            ],
            "logConfiguration": {
                "logDriver": "awslogs",
                "options": {
                  "awslogs-group": "/ecs/first-run-task-definition",
                  "awslogs-region": "us-east-1",
                  "awslogs-stream-prefix": "ecs"
                }
              }
        }
    ],
    "family": "first-run-task-definition-Fargate",
    "executionRoleArn": "arn:aws:iam::534788159916:role/ecsTaskExecutionRole"
}